<?xml version="1.0" encoding="UTF-8"?>
<svg width="617px" height="402px" viewBox="0 0 617 402" version="1.1" xmlns="http://www.w3.org/2000/svg" xmlns:xlink="http://www.w3.org/1999/xlink">
    <!-- Generator: Sketch 59.1 (86144) - https://sketch.com -->
    <title>Group 9</title>
    <desc>Created with Sketch.</desc>
    <defs>
        <rect id="path-1" x="41" y="0" width="49" height="17"></rect>
        <filter x="-11.2%" y="-32.4%" width="126.5%" height="176.5%" filterUnits="objectBoundingBox" id="filter-2">
            <feOffset dx="1" dy="1" in="SourceAlpha" result="shadowOffsetOuter1"></feOffset>
            <feGaussianBlur stdDeviation="2" in="shadowOffsetOuter1" result="shadowBlurOuter1"></feGaussianBlur>
            <feColorMatrix values="0 0 0 0 0   0 0 0 0 0   0 0 0 0 0  0 0 0 0.12 0" type="matrix" in="shadowBlurOuter1"></feColorMatrix>
        </filter>
        <rect id="path-3" x="40" y="0" width="50" height="104"></rect>
        <filter x="-11.0%" y="-5.3%" width="126.0%" height="112.5%" filterUnits="objectBoundingBox" id="filter-4">
            <feOffset dx="1" dy="1" in="SourceAlpha" result="shadowOffsetOuter1"></feOffset>
            <feGaussianBlur stdDeviation="2" in="shadowOffsetOuter1" result="shadowBlurOuter1"></feGaussianBlur>
            <feColorMatrix values="0 0 0 0 0   0 0 0 0 0   0 0 0 0 0  0 0 0 0.12 0" type="matrix" in="shadowBlurOuter1"></feColorMatrix>
        </filter>
        <rect id="path-5" x="40" y="29" width="49" height="73"></rect>
        <filter x="-11.2%" y="-10.3%" width="126.5%" height="117.8%" filterUnits="objectBoundingBox" id="filter-6">
            <feOffset dx="1" dy="-1" in="SourceAlpha" result="shadowOffsetOuter1"></feOffset>
            <feGaussianBlur stdDeviation="2" in="shadowOffsetOuter1" result="shadowBlurOuter1"></feGaussianBlur>
            <feColorMatrix values="0 0 0 0 0   0 0 0 0 0   0 0 0 0 0  0 0 0 0.12 0" type="matrix" in="shadowBlurOuter1"></feColorMatrix>
        </filter>
    </defs>
    <g id="yoy-version-control-graph" stroke="none" stroke-width="1" fill="none" fill-rule="evenodd">
        <g id="Desktop" transform="translate(-203.000000, -295.000000)">
            <g id="Group-9" transform="translate(203.000000, 295.000000)">
                <g id="Group-8">
                    <g id="Group-6">
                        <rect id="Rectangle" fill="#EFEFEF" x="0" y="0" width="617" height="402"></rect>
                        <g id="Group" transform="translate(73.000000, 109.000000)" fill="#CCCCCC">
                            <rect id="Rectangle" x="0" y="0" width="2" height="245"></rect>
                            <rect id="Rectangle" transform="translate(225.000000, 123.000000) rotate(-90.000000) translate(-225.000000, -123.000000) " x="224" y="-102" width="2" height="450"></rect>
                        </g>
                        <text id="Adoption-of-Version" font-family="SourceSansPro-Black, Source Sans Pro" font-size="24" font-weight="700" letter-spacing="0.068571405">
                            <tspan x="111.185715" y="50" fill="#222222">Adoption of Version Control Services</tspan>
                            <tspan x="167.826857" y="81" font-family="SourceSansPro-Regular, Source Sans Pro" font-size="16" font-weight="normal" letter-spacing="0.04571427" fill="#555555">(Year-over-year change from 2018 to 2019)</tspan>
                        </text>
                        <g id="Group-2" transform="translate(94.000000, 231.000000)">
                            <text id="Github" font-family="SourceSansPro-Bold, Source Sans Pro" font-size="16" font-weight="bold" letter-spacing="0.04571427" fill="#222222">
                                <tspan x="40.7908572" y="42">Github</tspan>
                            </text>
                            <g id="Rectangle">
                                <use fill="black" fill-opacity="1" filter="url(#filter-2)" xlink:href="#path-1"></use>
                                <use fill="#FCA326" fill-rule="evenodd" xlink:href="#path-1"></use>
                            </g>
                        </g>
                        <g id="Group-2" transform="translate(101.000000, 196.000000)" fill="#222222">
                            <g id="Group-5">
                                <text id="0.4%" font-family="SourceSansPro-Bold, Source Sans Pro" font-size="16" font-weight="bold" letter-spacing="0.04571427">
                                    <tspan x="45.5817143" y="16"> 0.4%</tspan>
                                </text>
                                <g id="Group-3" transform="translate(38.000000, 11.500000) rotate(-270.000000) translate(-38.000000, -11.500000) translate(31.000000, 6.000000)">
                                    <path d="M8.374,0.2807 L12.875,4.7807 C13.266,5.1717 13.266,5.8037 12.875,6.1947 L8.375,10.6967 C7.978,11.0807 7.345,11.0697 6.961,10.6727 C6.587,10.2847 6.587,9.6707 6.961,9.2827 L9.755,6.4872 L0.740649303,6.4877 C0.331810888,6.4877 -3.97903932e-13,6.0397 -3.97903932e-13,5.4877 C-3.97903932e-13,4.9357 0.331810888,4.4877 0.740649303,4.4877 L9.754,4.4872 L6.96,1.6947 C6.576,1.2977 6.587,0.6647 6.984,0.2807 C7.372,-0.0933 7.986,-0.0933 8.374,0.2807 Z" id="Fill-1"></path>
                                </g>
                            </g>
                        </g>
                        <g id="Group-2" transform="translate(239.000000, 196.000000)" fill="#222222">
                            <g id="Group-5">
                                <text id="9.3%" font-family="SourceSansPro-Bold, Source Sans Pro" font-size="16" font-weight="bold" letter-spacing="0.04571427">
                                    <tspan x="45.5817143" y="16"> 9.3%</tspan>
                                </text>
                                <g id="Group-3" transform="translate(38.000000, 11.500000) rotate(-270.000000) translate(-38.000000, -11.500000) translate(31.000000, 6.000000)">
                                    <path d="M8.374,0.2807 L12.875,4.7807 C13.266,5.1717 13.266,5.8037 12.875,6.1947 L8.375,10.6967 C7.978,11.0807 7.345,11.0697 6.961,10.6727 C6.587,10.2847 6.587,9.6707 6.961,9.2827 L9.755,6.4872 L0.740649303,6.4877 C0.331810888,6.4877 -4.97379915e-13,6.0397 -4.97379915e-13,5.4877 C-4.97379915e-13,4.9357 0.331810888,4.4877 0.740649303,4.4877 L9.754,4.4872 L6.96,1.6947 C6.576,1.2977 6.587,0.6647 6.984,0.2807 C7.372,-0.0933 7.986,-0.0933 8.374,0.2807 Z" id="Fill-1"></path>
                                </g>
                            </g>
                        </g>
                        <g id="Group-2" transform="translate(376.000000, 243.000000)" fill="#222222">
                            <g id="Group-5">
                                <text id="4.6%" font-family="SourceSansPro-Bold, Source Sans Pro" font-size="16" font-weight="bold" letter-spacing="0.04571427">
                                    <tspan x="45.5817143" y="16"> 4.6%</tspan>
                                </text>
                                <g id="Group-3" transform="translate(38.000000, 10.500000) rotate(-90.000000) translate(-38.000000, -10.500000) translate(31.000000, 5.000000)">
                                    <path d="M8.374,0.2807 L12.875,4.7807 C13.266,5.1717 13.266,5.8037 12.875,6.1947 L8.375,10.6967 C7.978,11.0807 7.345,11.0697 6.961,10.6727 C6.587,10.2847 6.587,9.6707 6.961,9.2827 L9.755,6.4872 L0.740649303,6.4877 C0.331810888,6.4877 -3.12638804e-13,6.0397 -3.12638804e-13,5.4877 C-3.12638804e-13,4.9357 0.331810888,4.4877 0.740649303,4.4877 L9.754,4.4872 L6.96,1.6947 C6.576,1.2977 6.587,0.6647 6.984,0.2807 C7.372,-0.0933 7.986,-0.0933 8.374,0.2807 Z" id="Fill-1"></path>
                                </g>
                            </g>
                        </g>
                        <g id="Group-4" transform="translate(232.000000, 231.000000)">
                            <text id="Bitbucket" font-family="SourceSansPro-Bold, Source Sans Pro" font-size="16" font-weight="bold" letter-spacing="0.04571427" fill="#222222">
                                <tspan x="30.5302858" y="129">Bitbucket</tspan>
                                <tspan x="65" y="149"></tspan>
                            </text>
                            <g id="Rectangle">
                                <use fill="black" fill-opacity="1" filter="url(#filter-4)" xlink:href="#path-3"></use>
                                <use fill="#9795F9" fill-rule="evenodd" xlink:href="#path-3"></use>
                            </g>
                        </g>
                        <g id="Group-3" transform="translate(369.000000, 131.000000)">
                            <text id="GitLab" font-family="SourceSansPro-Bold, Source Sans Pro" font-size="16" font-weight="bold" letter-spacing="0.04571427" fill="#222222">
                                <tspan x="41.5428572" y="16">GitLab</tspan>
                                <tspan x="65" y="36"></tspan>
                                <tspan x="65" y="56"></tspan>
                            </text>
                            <g id="Rectangle">
                                <use fill="black" fill-opacity="1" filter="url(#filter-6)" xlink:href="#path-5"></use>
                                <use fill="#FC6D26" fill-rule="evenodd" xlink:href="#path-5"></use>
                            </g>
                        </g>
                    </g>
                    <text id="%-of-developers-that" font-family="SourceSansPro-Regular, Source Sans Pro" font-size="11" font-weight="normal" letter-spacing="0.0314285606" fill="#666666">
                        <tspan x="420" y="341">% of developers that regularly use </tspan>
                        <tspan x="420" y="355">both a  Version Control System and </tspan>
                        <tspan x="420" y="369">a Source Collaboration tool</tspan>
                    </text>
                </g>
            </g>
        </g>
    </g>
</svg>